%FSTAX24Y24*%
%MOIN*%
%IN hexenkessel-razzer.bottomlayer.ger *%
%AMRECT*21,1,$1,$2,0.0,0.0,$3*%
%ADD10C,0.0200*%
%ADD11C,0.0600*%
%ADD12C,0.0669*%
%ADD13C,0.0709*%
%ADD14C,0.0800*%
%ADD15C,0.0866*%
%ADD16C,0.1575*%
%ADD17O,0.0709X0.1575*%
%ADD18O,0.0787X0.2283*%
%ADD19O,0.1800X0.0800*%
%ADD20O,0.2047X0.0787*%
%ADD21RECT,0.0600X0.0600X1.1000*%
%ADD22RECT,0.0600X0.0600X150.0000*%
D12*X02874Y001181D03*D11*X011904Y007364D03*X013137Y007579D03*
X00748Y015354D03*X004933Y019045D03*D13*X003558Y015328D02*
G01X004308Y015761D01*D11*X008709Y016215D03*X009055Y01378D03*
X017718Y006967D03*X016241Y007227D03*X017718Y005467D03*
X020991Y005374D03*D13*X019448Y003025D02*X019523Y002162D01*D11*
X017717Y014173D03*X021433Y016045D03*X017717Y011811D03*
X016662Y011501D03*X017017Y010125D03*D15*X020866Y007087D03*D11*
X015281Y004677D03*X016142Y005906D03*X007087Y01378D03*D13*
X004426Y012925D02*X003574Y013075D01*D11*X012205Y023622D03*D13*
X008091Y025216D02*X007657Y025966D01*D11*X021722Y014087D03*D13*
X026652Y013054D02*X025838Y012758D01*D11*X008661Y029528D03*Y028528D03*
X016929Y02126D03*D13*X023889Y024809D02*X023664Y023972D01*D11*
X00905Y00526D03*X011774Y005869D03*D13*X009908Y001981D02*
X010059Y002834D01*D11*X023228Y016535D03*X022662Y015185D03*D13*
X025015Y015157D02*X025851Y014933D01*D11*X013935Y020409D03*D21*
X013528Y018442D03*D12*X001181Y001181D03*X02874Y031102D03*X001181D03*
D11*X016604Y0145D03*X016585Y0155D03*X016527Y0185D03*X013547Y017442D03*
X013566Y016442D03*X013624Y013443D03*X011692Y013221D03*
X007853Y013137D03*D15*X008071Y007087D03*D11*X013643Y012443D03*
X012205Y011811D03*X013399Y010568D03*D15*X009055Y007087D03*D11*
X016642Y012501D03*X01823Y013221D03*X020903Y013513D03*D15*
X019882Y007087D03*D13*X003859Y009707D02*X003006Y009857D01*
X02777Y009984D02*X026956Y009688D01*D11*X015933Y029045D03*
X015201Y027764D03*D22*X016799Y028545D03*D18*X024433Y028545D03*D11*
X016623Y013501D03*X013662Y011443D03*D14*X005176Y003255D03*D13*
X00669Y002549D02*X006841Y003402D01*D11*X006095Y005781D03*D14*
X003152Y008192D03*X001492Y019773D03*D13*X001924Y018158D02*
X002674Y018591D01*D11*X003433Y021643D03*D14*X003646Y02315D03*
X001417Y029528D03*X024349Y003019D03*D11*X02398Y005636D03*D14*
X027915Y008319D03*X026696Y01976D03*D13*X02586Y018313D02*
X026697Y018089D01*D11*X024005Y019433D03*D14*X028492Y023127D03*D13*
X022703Y00331D02*X022779Y002447D01*D20*X025417Y030435D03*D18*
X026795Y028545D03*D19*X011933Y028045D03*D13*X027045Y023963D02*
X026821Y023127D01*D11*X013933Y025045D03*X014961Y023228D03*D19*
X011933Y026195D03*D17*X003031Y029528D03*X006299D03*D11*
X00315Y006299D03*X005448Y008228D03*X001586Y023086D03*X002362Y025984D03*
X02789Y021498D03*X028666Y018601D03*X025197Y007874D03*X027495Y005946D03*
X01378Y006299D03*X0155Y008757D03*X012452Y003054D03*X014173Y005512D03*
D13*X005261Y023582D02*X004828Y024332D01*D15*X010039Y007087D03*D16*
X006969Y009843D03*X011142D03*D15*X008071Y017717D03*D11*
X012205Y022622D03*X011884Y018158D03*X013585Y015443D03*D15*
X010039Y017717D03*X009055D03*D11*X011024Y016929D03*X011513Y0155D03*
X013605Y014443D03*D16*X006969Y020472D03*X011142D03*D15*
X02185Y007087D03*D16*X01878Y009843D03*X022953D03*D15*X019882Y017717D03*
D11*X016286Y020494D03*X017933Y018045D03*X016547Y0175D03*D15*
X02185Y017717D03*X020866D03*D11*X020015Y016102D03*X018321Y016596D03*
X016566Y0165D03*D16*X01878Y020472D03*X022953D03*D10*X011904Y007364D02*
X013137Y007579D01*X00748Y015354D02*X006433Y016045D01*X004933Y019045D01*
X006433Y016045D02*X003933Y015545D01*X008709Y016215D02*X009055Y01378D01*
X017718Y006967D02*X016241Y007227D01*X017718Y005467D02*
X018933Y004545D01*X020991Y005374D01*X018933Y004545D02*
X019486Y002594D01*X017717Y014173D02*X020288Y014972D01*
X020425Y015056D01*X020548Y01516D01*X021433Y016045D01*X017717Y011811D02*
X016662Y011501D01*X017017Y010125D01*X019199Y006804D01*
X019599Y006404D01*X020165D01*X020866Y007087D01*X007087Y01378D02*
X004Y013D01*X012205Y023622D02*X0091Y025378D01*X009041Y025428D01*
X008917Y025519D01*X008851Y02556D01*X008709Y02562D01*X007874Y025591D01*
X021722Y014087D02*X026245Y012906D01*X016929Y02126D02*X023777Y024391D01*
X00905Y00526D02*X010433Y004545D01*X011774Y005869D01*X010433Y004545D01*
X009984Y002408D01*X023228Y016535D02*X023933Y016045D01*
X022662Y015185D01*X023933Y016045D02*X025433Y015045D01*
X013935Y020409D02*X013528Y018442D01*X013624Y013443D02*
X011692Y013221D01*X007853Y013137D01*X008006Y010272D01*
X008071Y007087D01*X013643Y012443D02*X012205Y011811D01*
X011433Y011045D01*X013399Y010568D01*X011433Y011045D02*X010712Y01088D01*
X010104Y010272D01*X009055Y007087D01*X016642Y012501D02*X01823Y013221D01*
X020903Y013513D01*X019882Y007087D01*X015933Y029045D02*
X015201Y027764D01*X016799Y028545D02*X016933Y024545D01*
X020683Y026545D01*X024433Y028545D01*X016933Y024545D02*
X015736Y020722D01*X014961Y012598D01*X014567Y011417D01*
X014961Y012598D01*X016623Y013501D01*X014567Y011417D02*
X013662Y011443D01*X014567Y011417D01*X014933Y005545D01*
X012694Y001515D01*X012582Y001353D01*X01244Y001216D01*X012274Y00111D01*
X012091Y001038D01*X011897Y001004D01*X006752Y000608D01*
X006556Y000612D01*X006364Y000655D01*X006185Y000733D01*
X006024Y000846D01*X005888Y000988D01*X005783Y001153D01*
X005712Y001336D01*X005176Y003255D01*X006766Y002975D01*
X005176Y003255D02*X006095Y005781D01*X003152Y008192D01*
X002098Y009795D01*X002007Y009966D01*X001952Y010152D01*
X001933Y010344D01*Y013946D01*X001918Y014093D01*X001904Y01419D01*
X001022Y0186D01*X001003Y018769D01*X001013Y018939D01*X001051Y019105D01*
X001118Y019262D01*X001209Y019405D01*X001492Y019773D01*
X002299Y018375D01*X001492Y019773D02*X003433Y021643D01*X003646Y02315D01*
X001982Y024503D01*X001843Y024628D01*X001729Y024776D01*
X001644Y024943D01*X001592Y025123D01*X001575Y025309D01*Y027953D01*
X001417Y029528D01*X014933Y005545D02*X015798Y005239D01*
X015957Y005167D01*X016101Y005069D01*X016225Y004946D01*
X016327Y004804D01*X018576Y000991D01*X018695Y000866D01*
X018834Y000763D01*X018989Y000686D01*X019154Y000636D01*
X019326Y000616D01*X019498Y000626D01*X022095Y000997D01*
X022255Y001033D01*X022407Y001095D01*X022547Y001182D01*X022671Y00129D01*
X024349Y003019D01*X02398Y005636D01*X027915Y008319D01*X029208Y010641D01*
X029279Y010799D01*X029321Y010966D01*X029334Y011139D01*
X029317Y011311D01*X02927Y011478D01*X027997Y014875D01*X027949Y015048D01*
X027933Y015226D01*Y018468D01*X027918Y018642D01*X027873Y01881D01*
X027799Y018968D01*X027699Y019111D01*X027576Y019234D01*
X027434Y019334D01*X026696Y01976D01*X026279Y018201D01*X026696Y01976D02*
X024005Y019433D01*X028492Y023127D01*X024349Y003019D02*
X022741Y002878D01*X026795Y028545D02*X027335Y028782D01*
X027503Y028876D01*X02765Y029001D01*X02777Y029151D01*X027859Y029322D01*
X027914Y029506D01*X027933Y029698D01*Y030162D01*X027917Y030342D01*
X027868Y030516D01*X027789Y030678D01*X027683Y030824D01*
X027551Y030948D01*X0274Y031046D01*X027233Y031116D01*X027057Y031154D01*
X024062Y031529D01*X02401Y031534D01*X023933Y03154D01*X023829Y031536D01*
X017933Y031045D01*X015808Y03062D01*X015633Y030568D01*X01547Y030485D01*
X015326Y030374D01*X015204Y030239D01*X014146Y028829D01*
X014032Y028702D01*X013899Y028596D01*X01375Y028514D01*X013588Y028459D01*
X011933Y028045D01*X013933Y025045D02*X012933Y025545D01*
X014961Y023228D01*X012933Y025545D02*X011933Y026195D01*
X008071Y017717D02*X010104Y020902D01*X010712Y02151D01*X012205Y022622D01*
X012179Y020043D01*X011905Y019709D01*X011919Y019514D01*
X011884Y018158D01*X012493Y016441D01*X012555Y0163D01*X012638Y016171D01*
X012739Y016056D01*X012857Y015959D01*X013585Y015443D01*
X009055Y017717D02*X009756Y017033D01*X011024Y016929D01*X011513Y0155D01*
X013605Y014443D01*X019882Y017717D02*X016286Y020494D01*
X017933Y018045D01*X016547Y0175D01*X020866Y017717D02*X020015Y016102D01*
X018321Y016596D01*X016566Y0165D01*
M02*