%FSTAX24Y24*%
%MOIN*%
%IN hexenkessel-razzer-panel.bottomsoldermask.ger *%
%ADD10C,0.0100*%
%ADD11C,0.0300*%
%ADD12C,0.0869*%
%ADD13C,0.1499*%
%ADD14C,0.1575*%
D10*G01Y020866D01*Y0D02*X029921D01*Y041732D01*X0D01*Y020866D01*G36*
G01Y0D01*X029921D01*Y041732D01*X0D01*Y020866D01*G37*
%LPC*%
%LPD*%
D12*X001575Y040157D03*X028346D03*D13*X02563Y023898D03*
X004331Y029528D03*X002953Y017205D03*X003661Y011102D03*
X008071Y002756D03*X021417D03*X026929Y011063D03*X025945Y016929D03*
X006299Y024606D03*X02563Y023898D03*D14*X011929Y028031D03*
X020866Y009843D03*Y020472D03*X009055D03*Y009843D03*
M02*